88,2017-11-11,test1,test1,,_self,,,1,1,"2017-11-11 15:33:28","0000-00-00 00:00:00"
103,2017-11-11,test9,,,_self,,,1,1,"2017-11-11 15:38:40","0000-00-00 00:00:00"
104,2017-11-11,test9,,,_self,,,1,1,"2017-11-11 15:38:40","0000-00-00 00:00:00"
105,2017-11-11,test9,,,_self,,,1,1,"2017-11-11 15:38:40","0000-00-00 00:00:00"
106,2017-11-11,test9,,,_self,,,1,1,"2017-11-11 15:38:40","0000-00-00 00:00:00"
83,2017-11-01,test2,,,_self,,,1,2,"2017-11-01 00:03:52","0000-00-00 00:00:00"
89,2017-11-11,test3,,,_self,,,1,3,"2017-11-11 15:33:57","0000-00-00 00:00:00"
90,2017-11-11,test4,,,_self,,,1,4,"2017-11-11 15:34:15","0000-00-00 00:00:00"
99,2017-11-11,test5,,,_self,,,1,5,"2017-11-11 15:38:40","0000-00-00 00:00:00"
94,2017-11-11,test6,,,_self,,,1,6,"2017-11-11 15:36:54","0000-00-00 00:00:00"
100,2017-11-11,test7,,,_self,,,1,7,"2017-11-11 15:38:40","0000-00-00 00:00:00"
